[
    "tabTag",
    "tabDocField",
    "tabCustom",
    "tabVersion",
    "tabDocPerm",
    "tabDefaultValue",
    "tabDocType",
    "tabInstalled",
    "tabDocType Action",
    "tabDocType Link",
    "tabCustom Field",
    "tabSingles",
    "tabInstalled Application",
    "tabDocType State",
    "tabTag Link"
]