{
 "background_workers": 1,
 "file_watcher_port": 6787,
 "frappe_user": "extension",
 "gunicorn_workers": 9,
 "live_reload": true,
 "maintenance_mode": 0,
 "pause_scheduler": 0,
 "rebase_on_pull": false,
 "redis_cache": "redis://localhost:13000",
 "redis_queue": "redis://localhost:11000",
 "redis_socketio": "redis://localhost:12000",
 "restart_supervisor_on_update": true,
 "restart_systemd_on_update": false,
 "serve_default_site": true,
 "shallow_clone": true,
 "socketio_port": 9000,
 "use_redis_auth": false,
 "webserver_port": 8000
}